Atividade 4/simulation/qsim/LetraA.msim.vcd
$comment
	File created using the following command:
		vcd file LetraA.msim.vcd -direction
$end
$date
	Wed Apr 27 21:50:00 2022
$end
$version
	ModelSim Version 10.5b
$end
$timescale
	1ps
$end

$scope module LetraA_vlg_vec_tst $end
$var reg 1 ! A $end
$var reg 1 " B $end
$var reg 1 # C $end
$var reg 1 $ D $end
$var wire 1 % X $end

$scope module i1 $end
$var wire 1 & gnd $end
$var wire 1 ' vcc $end
$var wire 1 ( unknown $end
$var tri1 1 ) devclrn $end
$var tri1 1 * devpor $end
$var tri1 1 + devoe $end
$var wire 1 , ~QUARTUS_CREATED_GND~I_combout $end
$var wire 1 - ~QUARTUS_CREATED_UNVM~~busy $end
$var wire 1 . ~QUARTUS_CREATED_ADC1~~eoc $end
$var wire 1 / ~QUARTUS_CREATED_ADC2~~eoc $end
$var wire 1 0 X~output_o $end
$var wire 1 1 D~input_o $end
$var wire 1 2 C~input_o $end
$var wire 1 3 A~input_o $end
$var wire 1 4 B~input_o $end
$var wire 1 5 inst~0_combout $end
$upscope $end
$upscope $end
$enddefinitions $end
#0
$dumpvars
1!
1"
1#
1$
0%
0&
1'
x(
1)
1*
1+
0,
z-
z.
z/
00
11
12
13
14
15
$end
#10000
0$
01
#20000
0#
1$
11
02
#30000
0$
01
05
10
1%
#40000
0"
1#
1$
11
12
04
#50000
0$
01
#60000
0#
1$
11
02
#70000
0$
01
#80000
0!
1"
1#
1$
11
12
14
03
#90000
0$
01
#100000
0#
1$
11
02
#110000
0$
01
#120000
0"
1#
1$
11
12
04
#130000
0$
01
#140000
0#
1$
11
02
#150000
0$
01
