Atividade 4/letraB/simulation/qsim/LetraB.msim.vcd
$comment
	File created using the following command:
		vcd file LetraB.msim.vcd -direction
$end
$date
	Wed Apr 27 22:20:02 2022
$end
$version
	ModelSim Version 10.5b
$end
$timescale
	1ps
$end

$scope module LetraB_vlg_vec_tst $end
$var reg 1 ! A $end
$var reg 1 " B $end
$var reg 1 # C $end
$var reg 1 $ D $end
$var reg 1 % E $end
$var wire 1 & Z $end

$scope module i1 $end
$var wire 1 ' gnd $end
$var wire 1 ( vcc $end
$var wire 1 ) unknown $end
$var tri1 1 * devclrn $end
$var tri1 1 + devpor $end
$var tri1 1 , devoe $end
$var wire 1 - ~QUARTUS_CREATED_GND~I_combout $end
$var wire 1 . ~QUARTUS_CREATED_UNVM~~busy $end
$var wire 1 / ~QUARTUS_CREATED_ADC1~~eoc $end
$var wire 1 0 ~QUARTUS_CREATED_ADC2~~eoc $end
$var wire 1 1 Z~output_o $end
$var wire 1 2 B~input_o $end
$var wire 1 3 A~input_o $end
$var wire 1 4 C~input_o $end
$var wire 1 5 D~input_o $end
$var wire 1 6 E~input_o $end
$var wire 1 7 inst12~0_combout $end
$var wire 1 8 inst12~1_combout $end
$upscope $end
$upscope $end
$enddefinitions $end
#0
$dumpvars
1!
1"
1#
1$
1%
0&
0'
1(
x)
1*
1+
1,
0-
z.
z/
z0
01
12
13
14
15
16
07
08
$end
#10000
0%
06
#20000
0$
1%
16
05
17
#30000
0%
06
#40000
0#
1$
1%
16
15
04
07
#50000
0%
06
#60000
0$
1%
16
05
#70000
1$
0%
06
15
#80000
0"
1%
16
02
#90000
1#
0$
0%
06
05
14
17
18
11
1&
#100000
1%
16
#110000
1$
0%
06
15
07
08
01
0&
#120000
0#
1%
16
04
#130000
0$
0%
06
05
#140000
1%
16
#150000
1$
0%
06
15
#160000
0!
1"
1#
1%
16
14
12
03
17
#170000
0$
0%
06
05
#180000
1$
1%
16
15
#190000
0%
06
#200000
0#
0$
1%
16
05
04
#210000
0%
06
#220000
1$
1%
16
15
#230000
0%
06
07
#240000
0"
1#
0$
1%
16
05
14
02
17
18
11
1&
#250000
0%
06
#260000
1$
1%
16
15
#270000
0%
06
#280000
0#
0$
1%
16
05
04
#290000
0%
06
#300000
1$
1%
16
15
#310000
0%
06
07
08
01
0&
#320000
0$
05
17
18
11
1&
