Atividade 4/LetraC/simulation/qsim/LetraC.msim.vcd
$comment
	File created using the following command:
		vcd file LetraC.msim.vcd -direction
$end
$date
	Wed Apr 27 22:57:42 2022
$end
$version
	ModelSim Version 10.5b
$end
$timescale
	1ps
$end

$scope module LetraC_vlg_vec_tst $end
$var reg 1 ! M $end
$var reg 1 " N $end
$var reg 1 # P $end
$var reg 1 $ Q $end
$var wire 1 % Y $end

$scope module i1 $end
$var wire 1 & gnd $end
$var wire 1 ' vcc $end
$var wire 1 ( unknown $end
$var tri1 1 ) devclrn $end
$var tri1 1 * devpor $end
$var tri1 1 + devoe $end
$var wire 1 , ~QUARTUS_CREATED_GND~I_combout $end
$var wire 1 - ~QUARTUS_CREATED_UNVM~~busy $end
$var wire 1 . ~QUARTUS_CREATED_ADC1~~eoc $end
$var wire 1 / Y~output_o $end
$var wire 1 0 Q~input_o $end
$var wire 1 1 M~input_o $end
$var wire 1 2 N~input_o $end
$var wire 1 3 P~input_o $end
$var wire 1 4 inst~0_combout $end
$upscope $end
$upscope $end
$enddefinitions $end
#0
$dumpvars
1!
1"
1#
1$
0%
0&
1'
x(
1)
1*
1+
0,
z-
z.
0/
10
11
12
13
04
$end
#10000
0$
00
#20000
0#
1$
10
03
14
1/
1%
#30000
0$
00
04
0/
0%
#40000
0"
1#
1$
10
13
02
14
1/
1%
#50000
0$
00
#60000
0#
1$
10
03
#70000
0$
00
#80000
0!
1"
1#
1$
10
13
12
01
#90000
0$
00
#100000
0#
1$
10
03
#110000
0$
00
#120000
0"
1#
1$
10
13
02
#130000
0$
00
#140000
0#
1$
10
03
#150000
0$
00
